{
  "dimensions": 2, "magnitude": 1.25e11, "dt": 20000, "bodies": [
    {
      "name": "One", "pos": [0.0e00, 0.0e00], "velocity": [0.05e04, 0.0e00],
      "mass": 5.97e24
    },
    {
      "name": "Two", "pos": [0.0e00, 4.5e10], "velocity": [3.0e04, 0.0e00],
      "mass": 1.989e30
    },
    {
      "name": "Three", "pos": [0.0e00, -4.5e10], "velocity": [-3.0e04, 0.0e00],
      "mass": 1.989e30
    }
  ]
}